[TITLE]


[JUNCTIONS]
;ID              	Elev        	Demand      	Pattern         
 2               	700         	0           	2               	;
 3               	710         	150         	2               	;
 7               	700         	0           	2               	;
 4               	700         	150         	2               	;
 6               	700         	150         	2               	;
 5               	650         	200         	2               	;

[RESERVOIRS]
;ID              	Head        	Pattern         
 1               	700         	                	;

[TANKS]
;ID              	Elevation   	InitLevel   	MinLevel    	MaxLevel    	Diameter    	MinVol      	VolCurve
 8               	830         	4           	0           	20          	60          	0           	                	;

[PIPES]
;ID              	Node1           	Node2           	Length      	Diameter    	Roughness   	MinorLoss   	Status
 1               	2               	3               	3000        	14          	100         	0           	Open  	;
 2               	3               	7               	5000        	12          	100         	0           	Open  	;
 6               	7               	8               	7000        	10          	100         	0           	Open  	;
 3               	3               	4               	5000        	8           	100         	0           	Open  	;
 7               	4               	5               	5000        	6           	100         	0           	Open  	;
 4               	4               	6               	5000        	8           	100         	0           	Open  	;
 5               	7               	6               	5000        	8           	100         	0           	Open  	;
 8               	6               	5               	1000        	12          	100         	0           	Open  	;

[PUMPS]
;ID              	Node1           	Node2           	Parameters
 9               	1               	2               	HEAD 1	;

[VALVES]
;ID              	Node1           	Node2           	Diameter    	Type	Setting     	MinorLoss   

[TAGS]

[DEMANDS]
;Junction        	Demand      	Pattern         	Category

[STATUS]
;ID              	Status/Setting

[PATTERNS]
;ID              	Multipliers
;
 2               	.5          	0.4         	0.3         	0.2         	0.1         	0.1         
 2               	0.3         	0.4         	0.5         	0.6         	0.6         	0.7         
 2               	0.8         	0.9         	1           	1.1         	1.1         	0.8         
 2               	0.7         	0.6         	0.5         	0.6         	0.7         

[CURVES]
;ID              	X-Value     	Y-Value
;PUMP: 
 1               	600         	150         

[CONTROLS]

[RULES]

[ENERGY]
 Global Efficiency  	75
 Global Price       	0
 Demand Charge      	0

[EMITTERS]
;Junction        	Coefficient

[QUALITY]
;Node            	InitQual

[SOURCES]
;Node            	Type        	Quality     	Pattern

[REACTIONS]
;Type     	Pipe/Tank       	Coefficient


[REACTIONS]
 Order Bulk            	1
 Order Tank            	1
 Order Wall            	1
 Global Bulk           	0
 Global Wall           	0
 Limiting Potential    	0
 Roughness Correlation 	0

[MIXING]
;Tank            	Model

[TIMES]
 Duration           	24
 Hydraulic Timestep 	1:00
 Quality Timestep   	0:05
 Pattern Timestep   	1:00
 Pattern Start      	0:00
 Report Timestep    	0.15
 Report Start       	0:00
 Start ClockTime    	12 am
 Statistic          	None

[REPORT]
 Status             	No
 Summary            	No
 Page               	0

[OPTIONS]
 Units              	GPM
 Headloss           	H-W
 Specific Gravity   	1
 Viscosity          	1
 Trials             	40
 Accuracy           	0.001
 CHECKFREQ          	2
 MAXCHECK           	10
 DAMPLIMIT          	0
 Unbalanced         	Stop
 Pattern            	2
 Demand Multiplier  	1.0
 Emitter Exponent   	0.5
 Quality            	None mg/L
 Diffusivity        	1
 Tolerance          	0.01

[COORDINATES]
;Node            	X-Coord         	Y-Coord
 2               	3213.24         	8044.12         
 3               	4919.12         	8014.71         
 7               	6286.76         	8117.65         
 4               	4933.82         	6750.00         
 6               	6345.59         	6794.12         
 5               	4948.53         	5279.41         
 1               	1904.41         	8029.41         
 8               	7389.71         	8191.18         

[VERTICES]
;Link            	X-Coord         	Y-Coord
 3               	4963.24         	6691.18         
 7               	4963.24         	5220.59         
 7               	4963.24         	5220.59         
 4               	6419.12         	6794.12         
 8               	6213.24         	6117.65         
 8               	5625.00         	5514.71         

[LABELS]
;X-Coord           Y-Coord          Label & Anchor Node
 1610.29          8588.24          "Source"                 
 2301.47          7823.53          "Pump"                 
 7242.65          8750.00          "Tank"                 

[BACKDROP]
 DIMENSIONS     	0.00            	0.00            	10000.00        	10000.00        
 UNITS          	None
 FILE           	
 OFFSET         	0.00            	0.00            

[END]
